<?xml version="1.0" standalone="no"?>
<!DOCTYPE svg PUBLIC "-//W3C//DTD SVG 1.1//EN" "http://www.w3.org/Graphics/SVG/1.1/DTD/svg11.dtd">
<svg xmlns="http://www.w3.org/2000/svg">
<metadata>Generated by Fontastic.me</metadata>
<defs>
<font id="icons" horiz-adv-x="512">
<font-face font-family="icons" units-per-em="512" ascent="480" descent="-32"/>
<missing-glyph horiz-adv-x="512" />

<glyph glyph-name="top-menu3" unicode="&#97;" d="M363 227l0-118-214 0 0 118-22 0 0-139 258 0 0 139z m-107 197l-168-179 16-15 152 163 152-163 16 15z"/>
<glyph glyph-name="top-menu2" unicode="&#98;" d="M318 350l32-32-113-114-48-16 16 48z m43 43c4 4 9 3 12 0l20-19c4-4 4-10 0-13l-16-16-32 32z m-174-148l-23-69c-2-4 0-8 2-10 2-2 4-3 7-3 1 0 2 0 3 0l69 23c2 1 3 2 4 3l158 158c11 11 11 29 0 40l-20 20c-11 12-29 12-40 0l-158-158c-1-1-2-2-2-4m219 40c-6 0-10-4-10-10l0-143c0-9-8-16-16-16l-248 0c-8 0-16 7-16 16l0 247c0 9 8 17 16 17l143 0c6 0 10 4 10 10 0 5-4 10-10 10l-143 0c-20 0-35-17-35-36l0-247c0-20 16-36 35-36l248 0c20 0 35 16 35 36l0 143c0 5-4 9-9 9"/>
<glyph glyph-name="top-menu4" unicode="&#99;" d="M169 213c3 0 5 1 6 4l2 7 24 0 3-8c0-2 2-4 6-4 3 0 5 2 5 6 0 0 0 1 0 3l-17 45c-1 4-4 7-9 7-5 0-8-3-10-7l-17-45c0-1 0-2 0-3 0-3 3-5 7-5z m20 48l8-24-17 0z m31-42l0 48c0 4 2 6 6 6 2 0 4-1 6-2l26-36 0 32c0 4 3 6 7 6 3 0 6-2 6-6l0-48c0-4-3-6-6-6-2 0-5 1-6 3l-27 35 0-32c0-4-2-6-6-6-4 0-6 2-6 6z m-114 0l0 48c0 4 3 6 6 6 2 0 5-1 6-2l27-36 0 32c0 4 2 6 6 6 4 0 6-2 6-6l0-48c0-4-2-6-6-6-2 0-4 1-6 3l-26 35 0-32c0-4-3-6-7-6-3 0-6 2-6 6z m219 195l0 14-269 0 0-19c0-7 3-12 9-16l0-295c1-7 8-11 41-14 23-3 53-4 85-4 32 0 63 1 85 4 32 3 40 7 41 14l0 0c6 0 11 0 17 0 29 0 56 2 76 3 22 3 31 5 35 10l4 0 0 270c5 3 7 9 7 15l0 18z m-22-312c-10-4-51-8-113-8-61 0-103 4-113 8l0 287 226 0 0-287z m-226 300c-4 0-8 4-8 7l0 5 243 0 0-1-2 0 0-9c-2-2-3-2-5-2l-228 0z m240-148l6 19 7-22-13 0 0 3z m118-138l-2 0c0 2 2 4 2 4-5-4-43-9-101-9-6 0-11 0-17 0l0 130 17 0 3-7c0-2 2-3 5-3 3 0 5 2 5 5 0 0 0 2 0 2l-15 41c-2 4-5 6-9 6-2 0-5-1-6-4l0 96 118 0z m8 280c0-3-3-5-7-5l-119 0 0 2c3 2 5 4 6 8l120 0z m-92-160l0 43c0 4 2 5 6 5 1 0 3-1 5-2l24-32 0 29c0 4 2 5 5 5 4 0 6-1 6-5l0-43c0-3-2-5-6-5-1 0-3 1-5 2l-24 31 0-28c0-3-2-5-5-5-4-1-6 2-6 5z"/>
<glyph glyph-name="top-menu1" unicode="&#100;" d="M426 101l-340 0c-13 0-20 10-20 20l0 254 22 0 0-253 335 0 0 267-357 0 0 22 359 0c13 0 20-10 20-20l0-271c1-12-10-19-19-19z m-40 96l-260 0 0 22 260 0 0-22z m0 48l-260 0 0 22 260 0 0-22z m0 48l-260 0 0 22 260 0 0-22z"/>
<glyph glyph-name="side-menu1" unicode="&#101;" d="M284 223l58 80c2 3 2 6 0 8-3 2-6 3-9 1l-80-59c-5-3-9-9-9-16-1-7 2-13 6-17 4-4 10-7 16-7 7 1 14 4 18 10z m-28 14c0 3 2 5 4 7l49 35-35-49c-4-5-11-5-15-1-2 2-3 5-3 8z m151 92c-7 11-14 21-23 30l13 13 9-8 27 26-27 27-27-27 9-9-13-13c-9 9-19 16-30 22 0 0 0 0 0 0 0 0 0 0-1 0-19 11-41 19-64 21l0 7 9 0c9 0 16 7 16 16 0 8-8 15-16 15l-55 0c-8 0-15-7-15-15 0-9 7-16 15-16l10 0 0-7c-7 0-14-2-20-3-4-1-6-5-5-8 1-4 4-6 8-5 5 2 11 2 17 3l7 1c2 0 4 0 6 0l0-12c0-4 2-6 6-6 3 0 6 2 6 6l0 12c23-1 45-7 65-18l-6-9c-2-3-1-7 2-9 1-1 2-1 3-1 2 0 4 1 6 3l6 11c20-12 36-29 48-48l-11-6c-3-2-4-6-2-9 1-2 3-3 6-3 1 0 2 0 3 1l11 6c10-20 16-42 17-66l-13 0c-3 0-6-3-6-6 0-4 3-6 6-6l13 0c-1-24-7-46-18-66l-11 6c-3 1-7 0-9-2-1-3 0-7 2-9l11-6c-12-20-28-36-48-48l-6 10c-2 3-6 5-9 3-3-2-4-6-2-9l6-10c-20-11-42-17-65-18l0 12c0 3-3 6-6 6-4 0-7-3-7-6l0-12c-9 0-19 1-29 4-4 1-7-2-8-5 0-3 2-7 5-8 12-3 25-4 38-4l1 0c29 0 57 9 82 22 0 0 1 0 1 0 0 0 0 0 0 0 25 15 46 36 61 61 0 0 0 1 1 1 0 0 0 0 0 0 14 25 22 54 22 84 0 30-8 59-22 84 0 0 0 0 0 0z m0 70l8-9-8-9-9 9z m-139 14c-2 0-4 0-6 0l-1 0c-1 0-2 0-3 0 0 0-1 0-2 0l0 19-22 0c-2 0-3 1-3 3 0 1 1 3 3 3l56 0c1 0 3-2 3-3 0-2-2-3-3-3l-22 0 0-19z m-62-50l-31 0c-3 0-6-3-6-6 0-4 3-6 6-6l31 0c4 0 6 2 6 6 0 3-2 6-6 6z m0-44l-62 0c-3 0-6-2-6-6 0-3 3-6 6-6l62 0c4 0 6 3 6 6 0 3-2 6-6 6z m0-43l-93 0c-3 0-6-3-6-6 0-4 3-6 6-6l93 0c4 0 6 2 6 6 0 3-2 6-6 6z m0-44l-118 0c-4 0-6-2-6-6 0-3 2-6 6-6l118 0c4 0 6 3 6 6 0 3-2 6-6 6z m0-43l-81 0c-3 0-6-3-6-6 0-4 3-6 6-6l81 0c4 0 6 2 6 6 0 3-2 6-6 6z m0-44l-43 0c-4 0-6-2-6-6 0-3 2-6 6-6l43 0c4 0 6 3 6 6 0 3-2 6-6 6z"/>
<glyph glyph-name="side-menu2" unicode="&#102;" d="M362 407l-165 0c-14 0-24-12-24-25l0-124-41 0c-5 0-9-4-9-8l0-99c0-18 15-33 33-33 3 0 6 1 8 1 3 0 6-1 9-1l181 0c18 0 33 15 33 33l0 230c0 14-11 26-25 26z m-189-256c0-2-1-4-1-5 0 0 0-1 0-1-2-4-5-8-10-10-2 0-4-1-5-1-10 0-17 7-17 17l0 91 33 0 0-91z m197 0c0-10-7-17-16-17l-170 0c1 1 1 2 1 3 1 0 1 1 1 2 1 1 1 3 2 4 0 1 0 1 0 2 1 2 1 3 1 6l0 230c0 5 4 9 8 9l165 0c5 0 8-4 8-9z m-33 198l-99 0c-5 0-8-4-8-9 0-4 3-8 8-8l99 0c5 0 8 4 8 8 1 5-3 9-8 9z m0-42l-99 0c-5 0-8-3-8-8 0-5 3-8 8-8l99 0c5 0 8 3 8 8 1 5-3 8-8 8z m0-41l-99 0c-5 0-8-3-8-8 0-5 3-8 8-8l99 0c5 0 8 3 8 8 1 5-3 8-8 8z m0-41l-99 0c-5 0-8-4-8-8 0-5 3-9 8-9l99 0c5 0 8 4 8 9 0 4-3 8-8 8z m0-41l-99 0c-5 0-8-4-8-8 0-5 3-9 8-9l99 0c5 0 8 4 8 9 0 4-3 8-8 8z"/>
<glyph glyph-name="ref" unicode="&#105;" d="M313 208c0-8 6-13 13-13 7 0 12 5 12 13l0 37 26 0c8 0 13 5 13 12 0 5-4 11-13 11l-26 0 0 24 31 0c8 0 11 6 11 12 0 6-4 12-11 12l-43 0c-9 0-13-6-13-13l0-95z m-83 1c0-7 6-13 13-13l43 0c8 0 12 6 12 12 0 6-4 12-12 12l-31 0 0 26 28 0c8 0 12 6 12 12 0 5-4 11-12 11l-28 0 0 25 30 0c8 0 12 6 12 12 0 6-4 12-12 12l-41 0c-9 0-13-6-13-15l0-94z m-73 84l17 0c9 0 16-5 16-15 0-9-6-15-16-15l-17 0z m-26-85c0-8 6-13 13-13 6 0 12 5 12 13l0 37 1 0 37-46c3-3 7-4 10-4 7 0 12 6 12 13 0 2-1 5-3 7l-29 31c18 3 32 13 32 32 0 26-17 38-43 38l-29 0c-9 0-13-5-13-13l0-95z"/>
<glyph glyph-name="side-menu4" unicode="&#103;" d="M212 192c0 0-1 0-1 0l-20 29-37 34 0 1c-6 3-16 11-19 14-7 6-21 26-29 36l0 1c-11 12-10 31 2 42l1 1c12 11 31 10 42-2l1-1c6-7 16-21 22-26 1-2 3-4 6-6l0 0c5-5 10-9 13-13l4-3c5-5 19-17 31-30 14-15 26-32 28-36l1 0c1-1 1-2 2-3 4 3 8 4 13 4 1 0 2 0 2 0-1 3-3 6-5 8-4 6-15 22-29 37-13 14-27 26-33 31l-2 3c-4 4-10 9-14 13l-1 1c-2 1-4 4-5 5-4 3-11 13-21 25l-1 1c-17 19-46 20-64 4l-2-1c-18-17-20-46-3-64 4-5 21-30 29-38 5-5 17-14 20-16l35-33 21-28 0-1c5-5 11-9 18-11z m146 96c-32 0-58-25-62-57 5 3 11 4 17 4 5 21 23 36 45 36 27 0 48-22 48-48 0-22-16-41-36-46 3-5 5-10 4-16 27 7 47 32 47 62 0 36-28 65-63 65z m-125-83c0 2 0 3 0 4 1 5 5 7 9 7 5 0 6-3 6-5l4-30 1 0 14 30c2 2 4 5 8 5 5 0 8-3 7-7-1-2-1-3-2-4l-22-39c-2-3-4-6-9-6-4 0-6 3-7 6z m86-5c-2 0-7 4-12 4-3 0-6-1-6-4-1-7 25-6 22-23-2-10-12-18-25-18-8 0-20 5-19 12 1 2 4 6 8 6 6 0 8-5 14-5 5 0 7 2 7 5 1 6-25 5-22 22 2 11 12 18 24 18 7 0 18-3 16-11 0-3-3-6-7-6z m23-24c4 0 7-4 7-8-1-5-5-9-10-9-4 0-8 4-6 9 0 4 4 8 9 8z"/>
<glyph glyph-name="side-menu3" unicode="&#104;" d="M397 219c-8 0-17 3-23 9l-1 1-18 20-30 23c-3 2-13 7-17 11-7 5-22 23-25 27-14 13-16 35-2 50l0 0c14 15 36 16 50 2l1 0c9-9 15-16 19-19 0-1 2-2 4-3l1 0c3-3 8-7 11-10l2-1c5-4 17-12 28-22 12-11 23-23 25-26 14-13 15-35 2-50l0 0c-7-8-17-12-27-12z m-15 18c10-8 24-8 33 2l1 1c8 9 7 24-2 32l-1 1c-2 2-12 15-24 25-10 10-22 18-27 21l-2 2c-4 3-8 6-11 9l-1 0c-2 2-4 3-5 4-5 4-14 14-19 19l-1 1c-10 8-24 8-33-2l0-1c-9-9-8-24 1-32l1-1c6-7 19-21 24-26 3-2 10-6 16-10l0 0 31-24z m37-2z m-313 59c-10 0-21 6-27 16l0 1c-8 15-2 33 13 41l1 1c1 0 14 6 19 9 1 0 2 1 3 2l1 0c3 3 7 5 11 7l0 1c4 3 14 10 25 16 13 7 25 12 28 13 14 7 32 2 40-12l1-1c8-15 2-34-13-41l0-1-21-8-26-17c-1-2-9-8-13-11-7-4-25-11-28-12-4-3-9-4-14-4z m-8 47c-9-5-12-16-8-24l1-1c4-9 15-12 24-8l1 1c4 1 21 8 27 12 2 1 9 7 11 9l1 1 28 17 21 9c9 5 11 16 7 25l0 0c-5 9-16 12-25 8l-1-1c-1 0-14-5-26-12-11-5-21-12-24-15l-2-2c-3-1-7-4-10-6l-1-1c-2-1-3-2-4-2-5-3-17-8-20-10z m108 10z m141-232c-9 0-18 5-23 14l-18 28-10 20c-1 4 0 7 3 9 3 1 7 0 8-3l10-20 17-28c4-8 13-10 20-6 3 1 6 5 7 8 1 4 1 8-1 11l-1 2c-4 7-22 45-24 49l-34 58-10 23-10 14c-4 7-12 10-19 6-7-4-10-12-6-19l0-1 5-14 11-15 1-3c2-3 1-7-2-8-3-2-7-1-8 2l-2 3-11 15-5 15c-6 13-1 29 11 36 13 7 29 2 36-10l11-15 10-23 33-59c17-34 23-46 24-50 4-6 4-13 2-20-2-7-6-13-13-16-3-2-8-3-12-3z m-165-34c-11 0-21 4-29 12l-1 1c-14 17-12 42 4 57l1 1 26 18 30 32c2 2 10 13 15 18 7 7 28 21 34 26 17 15 42 13 56-3l1-1c14-16 12-41-4-56l-2-1c-2-1-18-14-23-19-1-1-3-2-4-4l-1-1c-4-4-9-9-13-13l-1-1c-10-12-20-22-29-30-15-13-31-24-34-26-7-7-17-10-26-10z m-20 21c10-11 28-12 39-2l1 0c1 1 17 12 32 26 9 8 18 17 29 29l2 2c3 3 8 8 11 12l1 1c2 2 4 4 5 5 6 5 22 18 24 19l1 1c11 10 13 28 3 39l-1 0c-10 11-27 12-39 2l0 0c-12-9-28-20-33-26-4-3-12-13-14-17l-1 0-31-33-26-19c-11-10-13-28-3-39z m55 94c0 0-1 0-1 0l-17 5-19 3-15 7c-13 5-20 20-16 34 4 13 19 21 32 18l18-3 24-10 31-8c3-1 5-4 4-8 0-3-4-5-7-4l-32 8-24 10-17 2c-7 2-15-2-17-9-3-7 2-16 9-18l1 0 13-7 18-3 18-5c3-1 5-5 4-8-2-2-4-4-7-4z m134-22c-1 0-2 0-3 0-3 1-4 5-3 8 1 1 1 2 1 2 3 7-2 16-9 18-4 1-5 5-4 8 0 3 4 5 7 4 14-4 22-19 18-33 0-2-1-2-1-4-2-2-4-3-6-3z"/>
</font></defs></svg>
