<?xml version="1.0" standalone="no"?>
<!DOCTYPE svg PUBLIC "-//W3C//DTD SVG 1.1//EN" "http://www.w3.org/Graphics/SVG/1.1/DTD/svg11.dtd">
<svg xmlns="http://www.w3.org/2000/svg">
<metadata>Generated by Fontastic.me</metadata>
<defs>
<font id="untitled-font-1" horiz-adv-x="512">
<font-face font-family="untitled-font-1" units-per-em="512" ascent="480" descent="-32"/>
<missing-glyph horiz-adv-x="512" />

<glyph glyph-name="side-menu7" unicode="&#102;" d="M199 238l-38 0 0 83 39 0c26 0 42-16 42-41 0-26-17-42-43-42m62-66c0-28-22-48-54-48l-46 0 0 96 47 0c32 0 53-19 53-48m-58 168l-52 0c-10 0-13-7-13-13l0-209c0-6 2-13 13-13l57 0c53 0 76 34 76 67 0 29-21 53-49 56l-3 1 0 6 2 1c19 6 32 25 32 49-1 27-22 55-63 55m173-229l-74 0c-21 0-38 17-38 38l0 116c0 22 17 39 38 39l74 0c21 0 39-18 39-39l0-116c0-21-18-38-39-38m-74 190c-20 0-36-16-36-36l0-116c0-20 16-36 36-36l74 0c20 0 36 17 36 36l0 116c0 20-16 36-36 36z m-247 163c0 2 2 4 4 4 0 0 0 0 0 0-2 0-5-2-5-4 0-1 1-1 1 0m320-133l-71 0 1 2c3 9 10 15 18 19l0 34c0 9 7 16 16 16 9 0 16-7 16-16l0-34c8-4 15-10 19-19z m-67 3l63 0c-4 7-10 13-18 16l0 0 0 36c0 7-6 13-14 13-7 0-13-6-13-13l0-36-1 0c-8-3-14-9-17-16m-243 151c0 1 0 3 1 3 1 0 1 1 0 1-2 0-2-2-2-4 0 0 1 0 1 0m9-52l-15 0c-5 0-8 4-8 8l0 23c0 3 2 6 4 7 0 1 0 1 0 1l1 4c1 1 1 2 2 2l1 0c1 1 2 2 3 3l0 6c0 2 2 4 4 4 2 0 4-2 4-4l0-6c2-1 3-2 4-3l0 0c1 0 2-1 2-2l1-4c0 0 0 0 0-1 3-1 5-4 5-7l0-23c0-4-4-8-8-8m-18 38l1 0-1-1c-2-1-4-3-4-6l0-23c0-4 3-7 7-7l15 0c4 0 7 3 7 7l0 23c0 3-2 5-5 6l0 1 0 0c0 1 0 1 0 1l-1 4c0 1 0 1-1 1l-1 0 0 0c-1 2-2 3-4 3l0 0 0 7c0 2-1 3-3 3-1 0-3-1-3-3l0-7 0 0c-1 0-2-1-3-3l0 0-2 0c0 0-1-1-1-1l-1-4c0 0 0 0 0-1m19 0l-18 0c0 0-1 0-1 0 0 0 0 1 0 1l1 4c0 1 1 1 1 1l16 0c1 0 1-1 1-1l1-4c0 0 0-1 0-1 0 0 0 0-1 0m-17 6c0 0 0-1 0-1l-1-4c0 0 0 0 0 0 0-1 0-1 0-1l19 0c0 0 0 0 0 1 0 0 0 0 0 0l-1 4c0 0 0 1-1 1z m262-228l38 0c1 0 1 2 0 2l-38 0c-2 0-2-2 0-2m-257 212l7 0c0 0 0 0 0 0l-7 0c-1 0-1 0 0 0z m264-242l25 0c2 0 2 3 0 3l-25 0c-2 0-2-3 0-3m-263 236l5 0c0 0 0 0 0 0l-5 0c-1 0-1 0 0 0z m256-266l38 0c1 0 1 3 0 3l-38 0c-2 0-2-3 0-3m-257 260l7 0c0 0 0 0 0 0l-7 0c-1 0-1 0 0 0z"/>
<glyph glyph-name="side-menu6" unicode="&#97;" d="M196 323l55 0c3 0 5 2 5 5 0 2-2 4-5 4l-55 0c-2 0-5-2-5-4 0-3 3-5 5-5m28-77l-37 0c-3 0-5-2-5-4 0-3 2-5 5-5l37 0c2 0 4 2 4 5 0 2-2 4-4 4m-14 24c0 3-2 5-5 5l-27 0c-3 0-5-2-5-5 0-2 2-4 5-4l27 0c3 0 5 2 5 4m-32 24l64 0c3 0 5 2 5 5 0 3-2 5-5 5l-64 0c-3 0-5-2-5-5 0-3 2-5 5-5m83-48l-19 0c-2 0-4-2-4-4 0-3 2-5 4-5l19 0c2 0 4 2 4 5 0 2-2 4-4 4m65-36c-2-2-2-5 0-7l10-10c1-1 2-2 3-2 1 0 3 1 3 2 2 2 2 5 0 7l-9 10c-2 2-5 2-7 0m61-56l-32 33c-1 1-2 1-3 1-1 0-3 0-3-1l-13-13c-2-2-2-6 0-7 2-2 4-2 7 0l9 10 29-30c3-3 5-6 5-10 0-4-2-8-5-11-5-5-14-5-19 0l-55 57c-2 2-5 2-7 0-2-2-2-5 0-7l54-57c5-4 11-7 17-7 6 0 11 3 16 7 4 5 7 11 7 17 0 7-2 13-7 18m-159 26c-55 0-101 47-101 105 0 58 46 105 101 105 56 0 102-47 102-105 0-58-46-105-102-105m111 105c0 63-50 114-111 114-61 0-110-51-110-114 0-64 49-115 110-115 61 0 111 51 111 115m-111-86c-45 0-83 38-83 86 0 47 38 86 83 86 46 0 83-39 83-86 0-48-37-86-83-86m0 181c-50 0-92-43-92-95 0-53 42-96 92-96 51 0 93 43 93 96 0 52-42 95-93 95m51-105l-55 0c-3 0-5-2-5-5 0-2 2-4 5-4l55 0c3 0 5 2 5 4 0 3-2 5-5 5m0 29l-18 0c-3 0-5-2-5-5 0-3 2-5 5-5l18 0c3 0 5 2 5 5 0 3-2 5-5 5"/>
<glyph glyph-name="side-menu3" unicode="&#98;" d="M332 250c3-5 5-10 5-15 0-10-7-20-19-24-4-1-6-5-5-8 0-3 1-5 1-7 0-14-13-26-30-26-9 0-18 5-23 11-2 2-4 3-7 3-2 0-4-1-5-3-6-6-15-11-24-11-16 0-29 12-29 26 0 2 0 5 0 7 2 3 0 8-4 9-10 5-16 14-16 24 0 5 2 10 6 14 2 3 2 7 0 10-4 5-6 9-6 15 0 10 7 18 17 22 2 1 4 3 4 5 1 2 1 4 0 6-1 2-2 5-2 9 0 14 13 25 29 25 9 0 19-4 24-11 2-1 4-2 6-2 3 0 5 1 7 3 5 6 14 11 23 11 17 0 30-12 30-26 0-3-1-5-2-8-1-2-1-4 0-6 1-2 3-3 5-4 12-3 20-13 20-24 0-5-1-10-5-14-3-4-3-8 0-11m-3 60c0 2 0 4 0 7 0 22-20 40-45 40-11 0-22-4-30-10-8 7-19 10-30 10-12 0-23-4-31-11-9-8-14-18-14-29 0-3 1-6 1-8-12-7-20-20-20-34 0-7 2-14 5-20-3-6-5-13-5-20 0-14 7-26 19-34 0-2 0-4 0-6 0-11 5-21 14-29 8-7 19-11 31-11 11 0 21 3 30 10 8-7 19-10 30-10 25 0 45 18 45 40 0 2 0 3 0 4 15 7 24 21 24 36 0 7-2 14-5 20 3 6 5 13 5 20 0 15-10 29-24 35m-59-41l-17-5 10 28c2 4 0 9-4 10-5 2-9 0-11-5l-16-43c-1-3 0-6 2-8 3-2 6-3 9-2l17 5-11-29c-2-4 0-8 4-10 1 0 2 0 3 0 3 0 6 2 8 5l16 45c1 2 1 6-2 8-2 1-5 2-8 1m-27 130c3-2 6-2 8-1l1 0-4-15c-1-4 2-8 6-9 0 0 1 0 2 0 4 0 7 2 8 6l8 31c1 3 0 6-2 8-3 2-6 2-8 1l-1-1 3 15c1 4-1 8-5 9-5 1-9-1-10-5l-8-31c-1-4 0-7 2-8m-137-9l14-9c-2-1-4-3-5-6 0-3 1-6 4-7l27-17c2-1 3-1 5-1 2 0 5 1 6 3 2 4 1 8-2 11l-14 8c3 1 5 3 5 6 0 3-1 6-4 8l-28 17c-4 3-9 1-11-2-1-4 0-9 3-11m41-229l-28-17c-3-2-4-5-4-8 1-2 2-5 5-6l-13-8c-4-2-5-7-3-10 2-3 5-4 7-4 2 0 3 1 4 1l29 17c2 1 4 5 3 8 0 3-2 5-5 6l14 8c4 3 5 8 3 11-3 3-8 4-12 2m122-47c-2 2-5 2-8 1l-1 0 4 15c1 4-2 8-6 9-4 1-8-2-10-6l-7-31c-1-3 0-6 2-7 3-2 6-2 8-1l1 0-4-15c-1-4 2-8 6-9 0 0 1 0 2 0 4 0 7 2 8 6l8 31c1 2 0 5-3 7m92 236c2 0 4 0 5 1l27 17c3 1 4 4 4 7-1 3-3 5-5 6l14 9c3 2 4 7 2 10-2 4-7 5-11 3l-28-17c-3-2-4-5-4-8 1-3 3-5 5-6l-13-8c-3-3-4-8-2-11 1-2 4-3 6-3m45-228l-13 9c2 1 4 3 5 6 0 3-1 6-4 7l-28 18c-4 2-9 1-11-3-3-3-1-8 2-11l14-8c-3-1-4-3-5-6 0-3 1-7 4-8l27-17c2 0 3-1 4-1 3 0 6 1 7 4 2 3 1 8-2 10"/>
<glyph glyph-name="side-menu1" unicode="&#99;" d="M284 223l58 80c2 3 2 6 0 8-3 2-6 3-9 1l-80-59c-5-3-9-9-9-16-1-7 2-13 6-17 4-4 10-7 16-7 7 1 14 4 18 10z m-28 14c0 3 2 5 4 7l49 35-35-49c-4-5-11-5-15-1-2 2-3 5-3 8z m151 92c-7 11-14 21-23 30l13 13 9-8 27 26-27 27-27-27 9-9-13-13c-9 9-19 16-30 22 0 0 0 0 0 0 0 0 0 0-1 0-19 11-41 19-64 21l0 7 9 0c9 0 16 7 16 16 0 8-8 15-16 15l-55 0c-8 0-15-7-15-15 0-9 7-16 15-16l10 0 0-7c-7 0-14-2-20-3-4-1-6-5-5-8 1-4 4-6 8-5 5 2 11 2 17 3l7 1c2 0 4 0 6 0l0-12c0-4 2-6 6-6 3 0 6 2 6 6l0 12c23-1 45-7 65-18l-6-9c-2-3-1-7 2-9 1-1 2-1 3-1 2 0 4 1 6 3l6 11c20-12 36-29 48-48l-11-6c-3-2-4-6-2-9 1-2 3-3 6-3 1 0 2 0 3 1l11 6c10-20 16-42 17-66l-13 0c-3 0-6-3-6-6 0-4 3-6 6-6l13 0c-1-24-7-46-18-66l-11 6c-3 1-7 0-9-2-1-3 0-7 2-9l11-6c-12-20-28-36-48-48l-6 10c-2 3-6 5-9 3-3-2-4-6-2-9l6-10c-20-11-42-17-65-18l0 12c0 3-3 6-6 6-4 0-7-3-7-6l0-12c-9 0-19 1-29 4-4 1-7-2-8-5 0-3 2-7 5-8 12-3 25-4 38-4l1 0c29 0 57 9 82 22 0 0 1 0 1 0 0 0 0 0 0 0 25 15 46 36 61 61 0 0 0 1 1 1 0 0 0 0 0 0 14 25 22 54 22 84 0 30-8 59-22 84 0 0 0 0 0 0z m0 70l8-9-8-9-9 9z m-139 14c-2 0-4 0-6 0l-1 0c-1 0-2 0-3 0 0 0-1 0-2 0l0 19-22 0c-2 0-3 1-3 3 0 1 1 3 3 3l56 0c1 0 3-2 3-3 0-2-2-3-3-3l-22 0 0-19z m-62-50l-31 0c-3 0-6-3-6-6 0-4 3-6 6-6l31 0c4 0 6 2 6 6 0 3-2 6-6 6z m0-44l-62 0c-3 0-6-2-6-6 0-3 3-6 6-6l62 0c4 0 6 3 6 6 0 3-2 6-6 6z m0-43l-93 0c-3 0-6-3-6-6 0-4 3-6 6-6l93 0c4 0 6 2 6 6 0 3-2 6-6 6z m0-44l-118 0c-4 0-6-2-6-6 0-3 2-6 6-6l118 0c4 0 6 3 6 6 0 3-2 6-6 6z m0-43l-81 0c-3 0-6-3-6-6 0-4 3-6 6-6l81 0c4 0 6 2 6 6 0 3-2 6-6 6z m0-44l-43 0c-4 0-6-2-6-6 0-3 2-6 6-6l43 0c4 0 6 3 6 6 0 3-2 6-6 6z"/>
<glyph glyph-name="side-menu4" unicode="&#100;" d="M348 330c-19 18-37 26-55 24-21-3-35-21-40-27-20 5-24 23-24 24-1 3-3 4-5 3-2 0-3-3-3-5 0-1 6-26 34-32l3 0 1 2c0 0 13 24 36 27 15 2 31-6 48-22 32-34 32-77 21-106-2-3-3-5-4-8 0 1-1 1-2 1-2 0-4-2-4-4 0-2 1-3 2-4-2-3-4-6-6-9 0 3-2 4-4 4-2 0-4-2-4-4 0-3 2-4 4-4 0 0 1 0 1 0-3-3-6-6-9-9 0 0 0 0 0 0 0 3-2 4-4 4-2 0-4-2-4-4 0-2 1-4 3-4-2-2-5-4-8-6-1 1-2 2-3 2-3 0-5-3-5-5 0-1 0-1 0-1-11-5-23-8-35-8l-1 0c-1 0-31-4-65 18l-3 2-2-3c0 0-3-3-8-4-5 0-10 3-17 10-4 4-9 5-14 3-5-1-13-8-13-30 0-2 2-4 4-4 2 0 4 2 4 4 0 14 4 21 8 23 2 1 4 0 6-2 5-6 11-10 16-11 1-1 2-1 2-1 1 0 1 0 1 0 1 0 3 0 4 0 5 0 8 2 11 4 25-15 48-17 59-17 4 0 7 0 8 0 38-1 73 24 89 64 16 40 7 84-23 115m-280 146c-4 4-7 6-11 5-4 0-7-4-7-5-4 1-5 4-5 5 0 0-1 0-1 0-1 0-1 0-1-1 0 0 1-5 7-6l0 0 1 0c0 0 2 5 7 6 3 0 6-1 9-5 6-6 6-15 4-20 0-1 0-1-1-2 0 0 0 0 0 0 0 0-1 0-1-1 0 0 0 0 1 0-1-1-1-1-2-2 0 0 0 1 0 1-1 0-1-1-1-1 0-1 0-1 1-1 0 0 0 0 0 0-1-1-1-1-2-2 0 0 0 0 0 0 0 1 0 1-1 1 0 0-1 0-1-1 0 0 1 0 1 0 0-1-1-1-2-2 0 1 0 1 0 1-1 0-1-1-1-1 0 0 0 0 0 0-2-1-5-2-7-2l0 0c0 0-6-1-13 4l0 0-1-1c0 0 0 0-1 0-1-1-2 0-4 2 0 0-1 1-3 0 0 0-2-1-2-6 0 0 0-1 1-1 0 0 1 1 1 1 0 3 0 4 1 5 1 0 1 0 1-1 1-1 3-2 4-2 0 0 0 0 0 0 0 0 0 0 0 0 0 0 1 0 1 0 1 0 2 0 2 1 5-3 9-4 12-4 0 0 1 0 1 0 8 0 14 5 17 13 3 8 2 16-4 22z m96-270c16 11 39 0 45-3 0 0 0 0 1 0 0-1 1-1 1-1l3-1 2 2c12 15 30 9 31 9l4-2 1 6c1 11 17 18 17 18l3 1 0 30-2 1c-11 6-12 22-12 22l0 3-4 1c-47 9-54 45-54 46-1 3-3 5-5 4-2 0-4-3-3-5 1-2 8-42 58-53 1-6 4-18 14-24l0-19c-5-3-15-9-19-20-7 2-22 3-33-10-8 5-33 15-52 3-15-9-22-29-22-59 0-3 2-4 4-4 2 0 4 2 4 4 0 26 6 44 18 51m-132 246c3 2 8 0 9 0 0 0 0 0 0 0 0-1 0-1 0-1l1 0 0 1c2 3 6 1 6 1l1 0 0 1c1 2 4 4 4 4l0 0 0 6 0 0c-3 1-3 4-3 4l0 1 0 0c-10 2-11 9-11 9 0 1 0 1-1 1 0 0-1-1 0-1 0-1 1-8 11-10 0-2 1-4 3-5l0-4c-1-1-3-2-4-4-2 0-4 1-7-2-1 1-6 3-10 1-3-2-4-6-4-12 0 0 0-1 1-1 0 0 1 1 1 1 0 5 1 9 3 10z m293-232c0-3-2-4-4-4-2 0-4 2-4 4 0 2 2 4 4 4 3 0 4-2 4-4m25 0c0-3-2-4-4-4-2 0-4 2-4 4 0 2 2 4 4 4 2 0 4-2 4-4m12 13c0-3-2-4-4-4-2 0-4 2-4 4 0 3 2 4 4 4 2 0 4-1 4-4m-122-26c0-3-2-4-4-4-3 0-5 2-5 4 0 2 2 4 5 4 2 0 4-2 4-4m24 0c0-3-2-4-4-4-2 0-4 2-4 4 0 2 2 4 4 4 2 0 4-2 4-4m25 0c0-3-2-4-4-4-2 0-4 2-4 4 0 2 2 4 4 4 2 0 4-2 4-4m24 0c0-3-2-4-4-4-2 0-4 2-4 4 0 2 2 4 4 4 2 0 4-2 4-4m24 0c0-3-2-4-4-4-2 0-4 2-4 4 0 2 2 4 4 4 3 0 4-2 4-4m-134-13c0-3-2-4-4-4-2 0-4 2-4 4 0 3 2 4 4 4 2 0 4-2 4-4m24 0c0-3-2-4-4-4-2 0-4 2-4 4 0 3 2 4 4 4 2 0 4-2 4-4m13-13c0-3-2-4-4-4-3 0-5 2-5 4 0 2 2 4 5 4 2 0 4-2 4-4m12 13c0-3-2-4-4-4-2 0-4 2-4 4 0 3 2 4 4 4 2 0 4-2 4-4m24 0c0-3-2-4-4-4-2 0-4 2-4 4 0 3 2 4 4 4 2 0 4-2 4-4m-24-26c0-3-2-4-4-4-2 0-4 2-4 4 0 2 2 4 4 4 2 0 4-2 4-4m24 0c0-3-2-4-4-4-2 0-4 2-4 4 0 2 2 4 4 4 2 0 4-2 4-4m-12 13c0-3-2-4-4-4-2 0-4 2-4 4 0 2 2 4 4 4 2 0 4-2 4-4m25 0c0-3-2-4-4-4-2 0-4 2-4 4 0 2 2 4 4 4 2 0 4-2 4-4m12 13c0-3-3-4-5-4-2 0-4 2-4 4 0 3 2 4 4 4 3 0 5-2 5-4m24 0c0-3-2-4-4-4-2 0-4 2-4 4 0 3 2 4 4 4 3 0 4-2 4-4m-24-26c0-3-3-4-5-4-2 0-4 2-4 4 0 2 2 4 4 4 3 0 5-2 5-4m12 13c0-3-2-4-4-4-2 0-4 2-4 4 0 2 2 4 4 4 2 0 4-2 4-4m-31-67l0-33c0-6-3-11-8-11-4 0-7 5-7 11l0 33c0 6 3 11 7 11 5 0 8-5 8-11m-85 0l-11-22c-2-3-7-5-11-3-3 1-5 4-5 6 0 1 0 2 1 3l11 22c2 4 6 6 11 4 4-1 6-6 4-10m168-19l-10 20c-1 1-1 2-1 3 0 3 2 5 4 6 4 2 8 0 10-3l10-20c1-4 0-8-4-9-3-1-7 0-9 3m-83 303l0 33c0 6-3 11-8 11-4 0-7-5-7-11l0-33c0-6 3-11 7-11 5 0 8 5 8 11m-88-1l-11 22c-2 4-7 6-11 4-3-2-5-4-5-7 0-1 0-2 1-3l11-22c2-3 6-5 10-3 5 1 7 6 5 9m171 19l-10-20c-1-1-1-2-1-3 0-2 2-5 4-6 4-1 8 0 10 4l10 20c1 3 0 7-4 9-3 1-7 0-9-4"/>
<glyph glyph-name="side-menu5" unicode="&#101;" d="M404 233c2 8 2 15 2 23 0 8 0 15-2 23 8-5 13-14 13-23 0-9-5-18-13-23m-118-87c-60 0-109 49-109 110 0 42 23 78 57 97 6-11 22-39 61-55 0 0 1 0 2 0 2 0 4 1 5 4 1 2 0 5-3 6-35 15-51 40-55 50 12 5 25 8 39 8 3-8 14-25 35-35 1 0 2 0 3 0 2 0 4 1 4 3 1 2 0 5-2 7-15 7-24 17-28 25 56-5 100-52 100-109 1-62-48-111-109-111m-118 87c-7 5-12 14-12 23 0 9 5 18 12 23-1-8-2-15-2-23 0-8 1-15 2-23m233 58c-15 49-61 85-115 85-54 0-99-36-114-85-16-4-27-19-27-35 0-16 11-31 27-35 15-49 60-85 114-85 54 0 100 36 115 85 15 4 26 19 26 35 0 16-11 31-26 35m-160-28c-13 0-23-11-23-23 0-3 3-6 5-6 3 0 5 3 5 6 0 6 6 12 13 12 6 0 12-6 12-12 0-3 2-6 5-6 3 0 5 3 5 6 1 12-9 23-22 23m90 0c-13 0-23-11-23-23 0-3 3-6 5-6 3 0 5 3 5 6 0 6 6 12 13 12 6 0 12-6 12-12 0-3 3-6 5-6 3 0 5 3 5 6 1 12-9 23-22 23m-13-59c-2 2-5 2-7 0-14-14-36-14-49 0-2 2-5 2-8 0-2-2-2-6 0-8 9-9 20-13 32-13 12 0 23 4 32 13 3 3 3 6 0 8m-25 28l-13 0c-4 0-6-3-6-5 0-3 3-5 6-5l13 0c3 0 5 2 5 5 0 2-2 5-5 5"/>
<glyph glyph-name="side-menu2" unicode="&#103;" d="M354 129l-167 0c-16 0-29 13-29 29l0 162c8-7 19-11 29-11l167 0z m8 196l-175 0c-16 0-29 13-29 29 0 16 14 29 29 29l175 0c5 0 8 4 8 8 0 4-4 7-8 7l-175 0c-25 0-45-20-45-45l0-196c0-25 21-45 45-45l175 0c5 0 8 3 8 7l0 198c0 5-3 8-8 8m-172 36c-5 0-8-3-8-7 0-4 4-8 8-8l147 0c5 0 8 4 8 8 0 4-3 7-8 7z m30-106c0 8 4 12 12 12l27 0c24 0 38-10 38-35 0-16-12-26-28-29l26-28c2-2 3-5 3-7 0-6-4-11-11-11-2 0-6 1-8 4l-35 41 0 0 0-33c0-8-5-12-12-12-7 0-12 4-12 12z m23-36l16 0c9 0 14 5 14 14 0 9-5 13-14 13l-16 0z"/>
</font></defs></svg>
